%YAML 1.1
%TAG !u! tag:unity3d.com,2011:
--- !u!1001 &100100000
Prefab:
  m_ObjectHideFlags: 1
  serializedVersion: 2
  m_Modification:
    m_TransformParent: {fileID: 0}
    m_Modifications: []
    m_RemovedComponents: []
  m_ParentPrefab: {fileID: 0}
  m_RootGameObject: {fileID: 1841102565041540}
  m_IsPrefabParent: 1
--- !u!1 &1841102565041540
GameObject:
  m_ObjectHideFlags: 0
  m_PrefabParentObject: {fileID: 0}
  m_PrefabInternal: {fileID: 100100000}
  serializedVersion: 5
  m_Component:
  - component: {fileID: 4946415659207016}
  - component: {fileID: 114059609898605754}
  m_Layer: 0
  m_Name: Convert
  m_TagString: Untagged
  m_Icon: {fileID: 0}
  m_NavMeshLayer: 0
  m_StaticEditorFlags: 0
  m_IsActive: 1
--- !u!4 &4946415659207016
Transform:
  m_ObjectHideFlags: 1
  m_PrefabParentObject: {fileID: 0}
  m_PrefabInternal: {fileID: 100100000}
  m_GameObject: {fileID: 1841102565041540}
  m_LocalRotation: {x: 0, y: 0, z: 0, w: 1}
  m_LocalPosition: {x: 0, y: 0, z: 0}
  m_LocalScale: {x: 1, y: 1, z: 1}
  m_Children: []
  m_Father: {fileID: 0}
  m_RootOrder: 0
  m_LocalEulerAnglesHint: {x: 0, y: 0, z: 0}
--- !u!114 &114059609898605754
MonoBehaviour:
  m_ObjectHideFlags: 1
  m_PrefabParentObject: {fileID: 0}
  m_PrefabInternal: {fileID: 100100000}
  m_GameObject: {fileID: 1841102565041540}
  m_Enabled: 1
  m_EditorHideFlags: 0
  m_Script: {fileID: 11500000, guid: e3e8dcdb6a8c124429be4c154623a3a9, type: 3}
  m_Name: 
  m_EditorClassIdentifier: 
  CanMove: 1
  Garbage: {fileID: 0}
  StartPoint: {x: 0, y: 862, z: 0}
  Point0: {x: 0, y: 512, z: 0}
  Point1: {x: -350, y: 512, z: 0}
  Point2: {x: -700, y: 512, z: 0}
  Point3: {x: -1150, y: 512, z: 0}
  Point4: {x: -1150, y: -42, z: 0}
  Point5: {x: -700, y: -42, z: 0}
  ThrashList: []
  ConvertPointObjects:
  - {fileID: 0}
  - {fileID: 0}
  - {fileID: 0}
  - {fileID: 0}
  - {fileID: 0}
